C:\44517\H08\h08\KafkaKollu\src\main\java\com\spnotes\kafka\partition\Producer.java
C:\44517\H08\h08\KafkaKollu\src\main\java\com\spnotes\kafka\simple\Consumer.java
C:\44517\H08\h08\KafkaKollu\src\main\java\com\spnotes\kafka\partition\Consumer.java
C:\44517\H08\h08\KafkaKollu\src\main\java\com\spnotes\kafka\partition\CountryPartitioner.java
C:\44517\H08\h08\KafkaKollu\src\main\java\com\spnotes\kafka\offset\Producer.java
C:\44517\H08\h08\KafkaKollu\src\main\java\com\spnotes\kafka\offset\Consumer.java
C:\44517\H08\h08\KafkaKollu\src\main\java\com\spnotes\kafka\simple\Producer.java
